  const response = {
      code: "SU208",
      file_data: {
        "56d4c3007f87dd6ae04bb429ebf8d2b06ba08cbada8f9bde5992f28e4d1687c7": {
          "4051b4dcbed69ced2a6295b9b650ba35367bc67251944b0eb4df6a51cc94c9d4": {
            file_name: "process.png",
            flags: {
              e: 2,
              i: 2,
              s: 2,
            },
            noise_type: "noisy2",
            status: "Not an Audio File!",
          },
          "86b209fc1058ad0250cb6d67784075b350f93d4b8e67f4a2cd574d22f6418b49bf":
            {
              file_name:
                "Tum Prem Ho - Reprise Lyrical Video Radha Krishn MOhit Lalwani Surya Raj Kamal.mp3",
              flags: {
                e: 2,
                i: 2,
                s: 2,
              },
              noise_type: "noisy2",
              status: "Audio File already exists!",
            },
          da7d0fffffe4efcf10a458065e356ee75df735d3465305f73560b5fdd4f7448f: {
            file_name: "palette.scss",
            flags: {
              e: 2,
              i: 2,
              s: 2,
            },
            noise_type: "noisy2",
            status: "Not an Audio File!",
          },
          processed_files: 3,
          total_files: 3,
        },
      },
      transaction_id:
        "56d4c3007f87dd6ae04bb429ebf8d2b06ba08cbada8f9bde5992f28e4d1687c7",
    };
    let res = response.file_data[response.transaction_id];
    const newArray = [];

    Object.keys(res).forEach((el) => {
      newArray.push(res[el]);
    }); 
    console.log("gfhf" ,newArray);
    this.setState({
      object: newArray,
    });